0.040000 0.000000 0.000000 0.040000 0.048175 0.001699 0.001699 0.048418 9999.000000 0.000000 0.000000 9999.000000 9999.000000 0.000000 0.000000 9999.000000
0.082416 0.000449 0.000449 0.080083 0.048175 0.001699 0.001699 0.048417 0.092762 0.000088 0.000088 0.089721 9999.000000 0.000000 0.000000 9999.000000
0.122862 -0.002380 -0.002380 0.124135 0.048175 0.001699 0.001699 0.048417 0.092761 0.000088 0.000088 0.089721 0.135508 -0.006654 -0.006654 0.141029
0.052482 0.003812 0.003812 0.054049 0.047846 0.001416 0.001416 0.047922 0.082647 0.001253 0.001253 0.078573 0.094976 -0.010798 -0.010798 0.094376
0.066123 -0.000957 -0.000957 0.068169 0.047715 0.001264 0.001264 0.047700 0.078485 0.003542 0.003542 0.066066 0.094637 -0.009981 -0.009981 0.092395
0.074395 -0.001684 -0.001684 0.089487 0.047557 0.001322 0.001322 0.047675 0.076481 0.003179 0.003179 0.064918 0.088952 -0.012386 -0.012386 0.083644
