0.040000 0.040000 0.040000 0.045414 0.048733 0.010000 9999.000000 9999.000000 9999.000000 9999.000000 9999.000000 9999.000000
0.082425 0.080074 0.080000 0.045414 0.048732 0.010000 0.096169 0.090144 0.010000 9999.000000 9999.000000 9999.000000
0.123021 0.124154 0.120000 0.045414 0.048732 0.010000 0.096168 0.090144 0.010000 0.131704 0.145747 0.010000
0.049220 0.055509 0.148054 0.045282 0.048113 0.005000 0.086538 0.078925 0.010000 0.084051 0.097537 0.010000
0.063285 0.068614 0.109492 0.045238 0.047823 0.005000 0.085992 0.066846 0.005000 0.083736 0.093195 0.010000
0.075288 0.075872 0.135604 0.045236 0.047823 0.005000 0.085863 0.065920 0.005000 0.072947 0.086820 0.005000
0.060781 0.057869 0.114362 0.045204 0.047702 0.003333 0.085674 0.063872 0.005000 0.069850 0.079059 0.005000
0.065612 0.064131 0.105400 0.045135 0.047634 0.003333 0.085249 0.059787 0.003333 0.069423 0.078069 0.005000
0.071322 0.067913 0.113903 0.045085 0.047631 0.003333 0.083363 0.059357 0.003333 0.067095 0.077588 0.003333
0.060093 0.056880 0.099051 0.045069 0.047590 0.002500 0.083142 0.058467 0.003333 0.065742 0.075624 0.003333
0.065146 0.061821 0.099179 0.045032 0.047557 0.002500 0.082802 0.056475 0.002500 0.065600 0.075262 0.003333
0.069701 0.065441 0.115214 0.045009 0.047556 0.002500 0.082064 0.056218 0.002500 0.064638 0.074776 0.002500
0.051078 0.055199 0.128745 0.044983 0.047527 0.002000 0.081191 0.055725 0.002500 0.062810 0.073215 0.002500
0.061239 0.060422 0.106047 0.044978 0.047502 0.002000 0.081190 0.054523 0.002000 0.062682 0.072654 0.002500
0.065935 0.063303 0.132560 0.044972 0.047502 0.002000 0.081174 0.054357 0.002000 0.061597 0.071833 0.002000
0.054247 0.056000 0.128533 0.044969 0.047478 0.001667 0.081040 0.054057 0.002000 0.061113 0.070151 0.002000
